<svg width="80" height="39" viewBox="0 0 80 39" fill="none" xmlns="http://www.w3.org/2000/svg">
<path fill-rule="evenodd" clip-rule="evenodd" d="M66.5927 11.5547H64.4705C62.6762 11.5547 62.5703 13.0033 62.5703 13.9374V22.5072C62.5703 23.4417 62.6762 24.8911 64.4705 24.8911H66.5927C68.3863 24.8911 68.4953 23.4417 68.4953 22.5072L68.4956 13.9374C68.4956 13.0033 68.3863 11.5547 66.5927 11.5547ZM65.534 23.2425C65.2199 23.2425 64.9659 23.0045 64.9659 22.7127C64.9659 22.7064 64.9667 22.6994 64.9667 22.6932V13.7538V13.7135L64.9687 13.6776C64.9995 13.4116 65.2398 13.2045 65.5328 13.2045C65.825 13.2045 66.0661 13.4116 66.0957 13.6776L66.0985 13.7135C66.0989 13.7202 66.0989 13.7468 66.0985 13.7538V22.6932C66.0989 22.6994 66.0996 22.7064 66.0996 22.7127C66.0996 23.0045 65.8449 23.2425 65.534 23.2425Z" fill="#0078D2"/>
<path fill-rule="evenodd" clip-rule="evenodd" d="M26.666 11.5547H31.5514V13.2108H29.2265V24.8911H26.666V11.5547Z" fill="#0078D2"/>
<path fill-rule="evenodd" clip-rule="evenodd" d="M34.7648 19.8799L35.2059 13.2088H35.3508L35.7903 19.8799H34.7648ZM31.9297 24.8911H34.4359L34.6746 21.3457H35.8829L36.12 24.8911H38.6266L37.2909 11.5547H33.2658L31.9297 24.8911Z" fill="#0078D2"/>
<path fill-rule="evenodd" clip-rule="evenodd" d="M42.2929 20.221V22.7307C42.2929 23.0752 42.5476 23.1717 42.6953 23.1717C42.9336 23.1717 43.0981 22.9608 43.0981 22.7307V19.6303C43.0981 19.2115 43.0246 18.7556 42.0718 18.7556H41.0306V17.2886H42.1065C42.8391 17.2886 43.0981 17.1147 43.0981 16.299V13.6464C43.0981 13.4182 42.9336 13.2108 42.6953 13.2108C42.5476 13.2108 42.2929 13.3049 42.2929 13.6464V15.8228H39.7305V13.9374C39.7305 13.0033 39.841 11.5547 41.633 11.5547H43.7575C45.5515 11.5547 45.6601 13.0033 45.6601 13.9374L45.6605 16.0713C45.6605 17.5187 44.6901 17.9176 43.9208 17.8793V18.0133C45.6406 17.9731 45.6601 19.3455 45.6601 19.8237L45.6605 22.5072C45.6605 23.4417 45.5515 24.8911 43.7575 24.8911H41.633C39.841 24.8911 39.7305 23.4417 39.7305 22.5072V20.221H42.2929Z" fill="#0078D2"/>
<path fill-rule="evenodd" clip-rule="evenodd" d="M47.3457 11.5547H53.2742V24.8911H50.8852V13.2108H49.7347V24.8911H47.3457V11.5547Z" fill="#0078D2"/>
<path fill-rule="evenodd" clip-rule="evenodd" d="M57.6905 18.8876V13.2111H58.3629C58.6395 13.2111 58.8403 13.4577 58.8403 13.8741V18.2239C58.8403 18.6419 58.6395 18.8876 58.3629 18.8876H57.6905ZM55.1289 24.8911H57.6905V20.3565H59.1544C60.9472 20.3565 61.2316 18.9079 61.2316 17.9734V13.9374C61.2316 13.0033 60.9472 11.5547 59.154 11.5547H55.1289V24.8911Z" fill="#0078D2"/>
<path fill-rule="evenodd" clip-rule="evenodd" d="M76.6707 11.5547H80.0008V24.8911H77.4376V16.5276H77.3482L76.0285 24.8911H73.9817L72.6636 16.5276H72.5722V24.8911H70.0098V11.5547H73.3387L75.0026 20.9277L76.6707 11.5547Z" fill="#0078D2"/>
<path fill-rule="evenodd" clip-rule="evenodd" d="M21.4369 6.89576C20.629 3.35158 18.5998 0.471151 18.3205 0C17.8786 0.661799 16.2589 3.20469 15.4381 6.02886C14.5399 9.17651 14.4075 11.9686 14.7177 14.7194C15.0251 17.4681 16.1878 20.2908 16.1878 20.2908C16.8054 21.7734 17.7309 23.3607 18.3326 24.1405C19.2155 22.9934 21.2466 19.5719 21.8783 15.1011C22.2303 12.6172 22.2452 10.4396 21.4369 6.89576ZM18.3205 23.2591C17.9232 22.5102 17.3047 21.0838 17.2457 18.8816C17.2309 16.7505 18.0833 14.9237 18.3326 14.5428C18.5553 14.9233 19.2897 16.5145 19.3776 18.6898C19.4362 20.8186 18.7318 22.4942 18.3205 23.2591ZM21.2028 12.911C21.172 14.2619 21.0102 15.6902 20.8051 16.5419C20.879 15.0722 20.7024 12.9989 20.3629 11.3803C20.0254 9.76057 19.069 7.06024 18.3048 5.80736C17.6005 6.99891 16.7304 9.33786 16.2761 11.3655C15.8186 13.3966 15.8049 15.8523 15.8049 16.5884C15.6838 15.9648 15.3799 13.7536 15.467 11.5284C15.5373 9.69181 15.9674 7.80721 16.2026 6.93874C17.0992 4.04112 18.1146 2.19051 18.3048 1.89711C18.4963 2.19051 19.7753 4.46969 20.4379 6.86568C21.0985 9.2648 21.231 11.5577 21.2028 12.911Z" fill="#0078D2"/>
<path fill-rule="evenodd" clip-rule="evenodd" d="M13.3544 24.8881V29.0808C13.3598 29.075 13.3645 29.0691 13.3716 29.0617C14.8362 27.6037 17.2138 27.6037 18.6792 29.0617C20.145 30.522 20.145 32.8926 18.6792 34.3495C18.6726 34.3573 18.6671 34.3627 18.6597 34.3678C18.6597 34.3694 18.6597 34.3694 18.6593 34.3694C18.6534 34.3764 18.6452 34.3827 18.6382 34.3905C17.1767 35.834 15.2655 36.5603 13.3544 36.5603C11.435 36.5603 9.51639 35.827 8.05059 34.3725C5.47137 31.8019 5.16508 27.8248 7.13212 24.9221C7.39739 24.5287 7.70211 24.1568 8.05059 23.8099C9.51639 22.3515 11.435 21.6252 13.3544 21.6252V11.626C5.97964 11.626 0 17.5814 0 24.9221C0 32.2668 5.97964 38.2222 13.3544 38.2222C17.2009 38.2222 20.6642 36.6005 23.1001 34.0127V24.8881H13.3544Z" fill="#0078D2"/>
<path fill-rule="evenodd" clip-rule="evenodd" d="M54.2022 32.2285H53.9947V34.9253H54.2022C54.5034 34.9253 54.6128 34.8409 54.6128 34.5002V32.6383C54.6128 32.2972 54.5034 32.2285 54.2022 32.2285ZM75.8615 34.031H75.5622V35.5437H75.8615C76.1658 35.5437 76.2572 35.466 76.2572 35.1347L76.2576 34.4381C76.2576 34.1068 76.1654 34.031 75.8615 34.031ZM52.0554 32.6543V34.5092C52.0554 34.8483 52.1637 34.9253 52.4637 34.9253H52.6793V32.2285H52.4637C52.1637 32.2285 52.0554 32.3144 52.0554 32.6543ZM79.9999 29.332H26.666V38.2218H79.9999V29.332ZM32.4562 36.5646H31.1048V34.031H30.4091V36.5646H29.0569V30.7764H30.4091V33.0098H31.1048V30.7764H32.4562V36.5646ZM43.6677 31.8698H41.8194V33.0079H43.4735V34.1068H41.8194V35.4707H43.6677V36.5689H40.422V30.7705H43.6677V31.8698ZM55.9255 34.5002C55.9255 35.6754 55.3242 35.993 53.9944 35.993L53.9947 36.5646H52.6793V35.993C51.3452 35.993 50.7408 35.6754 50.7408 34.5002V32.6922C50.7408 31.5104 51.3198 31.2096 52.6793 31.2096V30.7764H53.9947V31.2096C55.3465 31.2096 55.9255 31.5104 55.9255 32.6922V34.5002ZM66.3259 31.8698H65.2996V36.5689H64.0163V31.8698H62.9181V30.7705H66.3259V31.8698ZM77.6093 35.073C77.6093 36.3407 77.0304 36.5646 75.5622 36.5646H74.2101V30.7764H75.5622V33.0098H75.7869C77.1155 33.0098 77.6093 33.3189 77.6093 34.4772V35.073Z" fill="#0078D2"/>
</svg>
