<?xml version="1.0" encoding="UTF-8"?>
<!-- Generated by Pixelmator Pro 2.4.7 -->
<svg width="17" height="11" viewBox="0 0 17 11" xmlns="http://www.w3.org/2000/svg" xmlns:xlink="http://www.w3.org/1999/xlink">
    <path id="Path" fill="#ff0000" stroke="#000000" stroke-width="0.5" stroke-linecap="round" stroke-linejoin="round" d="M 0.71432 9.93016 L 15.961201 5.5 L 0.71432 1.069839 L 0.71432 9.93016 Z"/>
    <path id="path1" fill="none" stroke="#000000" stroke-width="0.5" stroke-linecap="round" stroke-linejoin="round" d="M 0.46436 5.5 L 15.464399 5.5"/>
</svg>
